-- Merging decision tree log ---
manifest
ADDED from C:\Users\acer\Desktop\School\AppDev\lab3\lab03-skeleton-code\app\src\main\AndroidManifest.xml:2:1-31:12
INJECTED from C:\Users\acer\Desktop\School\AppDev\lab3\lab03-skeleton-code\app\src\main\AndroidManifest.xml:2:1-31:12
INJECTED from C:\Users\acer\Desktop\School\AppDev\lab3\lab03-skeleton-code\app\src\main\AndroidManifest.xml:2:1-31:12
INJECTED from C:\Users\acer\Desktop\School\AppDev\lab3\lab03-skeleton-code\app\src\main\AndroidManifest.xml:2:1-31:12
MERGED from [com.android.support:support-v4:22.2.1] C:\Users\acer\.gradle\caches\transforms-1\files-1.1\support-v4-22.2.1.aar\ccc90dc3a7552e216e9d8ba0833e7cb2\AndroidManifest.xml:17:1-24:12
INJECTED from C:\Users\acer\Desktop\School\AppDev\lab3\lab03-skeleton-code\app\src\main\AndroidManifest.xml:2:1-31:12
INJECTED from C:\Users\acer\Desktop\School\AppDev\lab3\lab03-skeleton-code\app\src\main\AndroidManifest.xml:2:1-31:12
INJECTED from C:\Users\acer\Desktop\School\AppDev\lab3\lab03-skeleton-code\app\src\main\AndroidManifest.xml:2:1-31:12
	package
		ADDED from C:\Users\acer\Desktop\School\AppDev\lab3\lab03-skeleton-code\app\src\main\AndroidManifest.xml:3:5-38
		INJECTED from C:\Users\acer\Desktop\School\AppDev\lab3\lab03-skeleton-code\app\src\main\AndroidManifest.xml
		INJECTED from C:\Users\acer\Desktop\School\AppDev\lab3\lab03-skeleton-code\app\src\main\AndroidManifest.xml
	android:versionName
		ADDED from C:\Users\acer\Desktop\School\AppDev\lab3\lab03-skeleton-code\app\src\main\AndroidManifest.xml:5:5-30
		INJECTED from C:\Users\acer\Desktop\School\AppDev\lab3\lab03-skeleton-code\app\src\main\AndroidManifest.xml
		INJECTED from C:\Users\acer\Desktop\School\AppDev\lab3\lab03-skeleton-code\app\src\main\AndroidManifest.xml
	xmlns:android
		ADDED from C:\Users\acer\Desktop\School\AppDev\lab3\lab03-skeleton-code\app\src\main\AndroidManifest.xml:2:11-69
	android:versionCode
		ADDED from C:\Users\acer\Desktop\School\AppDev\lab3\lab03-skeleton-code\app\src\main\AndroidManifest.xml:4:5-28
		INJECTED from C:\Users\acer\Desktop\School\AppDev\lab3\lab03-skeleton-code\app\src\main\AndroidManifest.xml
		INJECTED from C:\Users\acer\Desktop\School\AppDev\lab3\lab03-skeleton-code\app\src\main\AndroidManifest.xml
uses-sdk
ADDED from C:\Users\acer\Desktop\School\AppDev\lab3\lab03-skeleton-code\app\src\main\AndroidManifest.xml:7:5-9:41
INJECTED from C:\Users\acer\Desktop\School\AppDev\lab3\lab03-skeleton-code\app\src\main\AndroidManifest.xml:7:5-9:41
INJECTED from C:\Users\acer\Desktop\School\AppDev\lab3\lab03-skeleton-code\app\src\main\AndroidManifest.xml:7:5-9:41
MERGED from [com.android.support:support-v4:22.2.1] C:\Users\acer\.gradle\caches\transforms-1\files-1.1\support-v4-22.2.1.aar\ccc90dc3a7552e216e9d8ba0833e7cb2\AndroidManifest.xml:20:5-43
MERGED from [com.android.support:support-v4:22.2.1] C:\Users\acer\.gradle\caches\transforms-1\files-1.1\support-v4-22.2.1.aar\ccc90dc3a7552e216e9d8ba0833e7cb2\AndroidManifest.xml:20:5-43
INJECTED from C:\Users\acer\Desktop\School\AppDev\lab3\lab03-skeleton-code\app\src\main\AndroidManifest.xml:7:5-9:41
INJECTED from C:\Users\acer\Desktop\School\AppDev\lab3\lab03-skeleton-code\app\src\main\AndroidManifest.xml:7:5-9:41
	android:targetSdkVersion
		ADDED from C:\Users\acer\Desktop\School\AppDev\lab3\lab03-skeleton-code\app\src\main\AndroidManifest.xml:9:9-38
		INJECTED from C:\Users\acer\Desktop\School\AppDev\lab3\lab03-skeleton-code\app\src\main\AndroidManifest.xml
		INJECTED from C:\Users\acer\Desktop\School\AppDev\lab3\lab03-skeleton-code\app\src\main\AndroidManifest.xml
	android:minSdkVersion
		ADDED from C:\Users\acer\Desktop\School\AppDev\lab3\lab03-skeleton-code\app\src\main\AndroidManifest.xml:8:9-34
		INJECTED from C:\Users\acer\Desktop\School\AppDev\lab3\lab03-skeleton-code\app\src\main\AndroidManifest.xml
		INJECTED from C:\Users\acer\Desktop\School\AppDev\lab3\lab03-skeleton-code\app\src\main\AndroidManifest.xml
application
ADDED from C:\Users\acer\Desktop\School\AppDev\lab3\lab03-skeleton-code\app\src\main\AndroidManifest.xml:11:5-29:19
MERGED from [com.android.support:support-v4:22.2.1] C:\Users\acer\.gradle\caches\transforms-1\files-1.1\support-v4-22.2.1.aar\ccc90dc3a7552e216e9d8ba0833e7cb2\AndroidManifest.xml:22:5-20
MERGED from [com.android.support:support-v4:22.2.1] C:\Users\acer\.gradle\caches\transforms-1\files-1.1\support-v4-22.2.1.aar\ccc90dc3a7552e216e9d8ba0833e7cb2\AndroidManifest.xml:22:5-20
	android:label
		ADDED from C:\Users\acer\Desktop\School\AppDev\lab3\lab03-skeleton-code\app\src\main\AndroidManifest.xml:14:9-41
	android:icon
		ADDED from C:\Users\acer\Desktop\School\AppDev\lab3\lab03-skeleton-code\app\src\main\AndroidManifest.xml:13:9-45
	android:allowBackup
		ADDED from C:\Users\acer\Desktop\School\AppDev\lab3\lab03-skeleton-code\app\src\main\AndroidManifest.xml:12:9-35
	android:theme
		ADDED from C:\Users\acer\Desktop\School\AppDev\lab3\lab03-skeleton-code\app\src\main\AndroidManifest.xml:15:9-40
activity#course.labs.activitylab.ActivityOne
ADDED from C:\Users\acer\Desktop\School\AppDev\lab3\lab03-skeleton-code\app\src\main\AndroidManifest.xml:16:9-24:20
	android:label
		ADDED from C:\Users\acer\Desktop\School\AppDev\lab3\lab03-skeleton-code\app\src\main\AndroidManifest.xml:18:13-45
	android:name
		ADDED from C:\Users\acer\Desktop\School\AppDev\lab3\lab03-skeleton-code\app\src\main\AndroidManifest.xml:17:13-63
intent-filter#action:name:android.intent.action.MAIN+category:name:android.intent.category.LAUNCHER
ADDED from C:\Users\acer\Desktop\School\AppDev\lab3\lab03-skeleton-code\app\src\main\AndroidManifest.xml:19:13-23:29
action#android.intent.action.MAIN
ADDED from C:\Users\acer\Desktop\School\AppDev\lab3\lab03-skeleton-code\app\src\main\AndroidManifest.xml:20:17-69
	android:name
		ADDED from C:\Users\acer\Desktop\School\AppDev\lab3\lab03-skeleton-code\app\src\main\AndroidManifest.xml:20:25-66
category#android.intent.category.LAUNCHER
ADDED from C:\Users\acer\Desktop\School\AppDev\lab3\lab03-skeleton-code\app\src\main\AndroidManifest.xml:22:17-77
	android:name
		ADDED from C:\Users\acer\Desktop\School\AppDev\lab3\lab03-skeleton-code\app\src\main\AndroidManifest.xml:22:27-74
activity#course.labs.activitylab.ActivityTwo
ADDED from C:\Users\acer\Desktop\School\AppDev\lab3\lab03-skeleton-code\app\src\main\AndroidManifest.xml:25:9-28:20
	android:label
		ADDED from C:\Users\acer\Desktop\School\AppDev\lab3\lab03-skeleton-code\app\src\main\AndroidManifest.xml:27:13-64
	android:name
		ADDED from C:\Users\acer\Desktop\School\AppDev\lab3\lab03-skeleton-code\app\src\main\AndroidManifest.xml:26:13-63
